var productExplorerServices=function() {
productExplorerServices.initializeBase(this);
this._timeout = 0;
this._userContext = null;
this._succeeded = null;
this._failed = null;
}
productExplorerServices.prototype={
_get_path:function() {
 var p = this.get_path();
 if (p) return p;
 else return productExplorerServices._staticInstance.get_path();},
GetProductExplorerRelatedItem:function(id,succeededCallback, failedCallback, userContext) {
return this._invoke(this._get_path(), 'GetProductExplorerRelatedItem',false,{id:id},succeededCallback,failedCallback,userContext); },
GetProductExplorerProduct:function(id,succeededCallback, failedCallback, userContext) {
return this._invoke(this._get_path(), 'GetProductExplorerProduct',false,{id:id},succeededCallback,failedCallback,userContext); },
GetProductExplorerProducts:function(succeededCallback, failedCallback, userContext) {
return this._invoke(this._get_path(), 'GetProductExplorerProducts',false,{},succeededCallback,failedCallback,userContext); },
GetProductExplorerRelatedItems:function(productid,mr,catid,capid,typeid,modelingid,relatedItemId,succeededCallback, failedCallback, userContext) {
return this._invoke(this._get_path(), 'GetProductExplorerRelatedItems',false,{productid:productid,mr:mr,catid:catid,capid:capid,typeid:typeid,modelingid:modelingid,relatedItemId:relatedItemId},succeededCallback,failedCallback,userContext); },
GetFilterCategories:function(stk,succeededCallback, failedCallback, userContext) {
return this._invoke(this._get_path(), 'GetFilterCategories',false,{stk:stk},succeededCallback,failedCallback,userContext); },
GetFilterCapabilities:function(stk,succeededCallback, failedCallback, userContext) {
return this._invoke(this._get_path(), 'GetFilterCapabilities',false,{stk:stk},succeededCallback,failedCallback,userContext); },
GetFilterTypes:function(stk,succeededCallback, failedCallback, userContext) {
return this._invoke(this._get_path(), 'GetFilterTypes',false,{stk:stk},succeededCallback,failedCallback,userContext); },
GetFilterModeling:function(stk,succeededCallback, failedCallback, userContext) {
return this._invoke(this._get_path(), 'GetFilterModeling',false,{stk:stk},succeededCallback,failedCallback,userContext); },
GetFilterProgramPhase:function(succeededCallback, failedCallback, userContext) {
return this._invoke(this._get_path(), 'GetFilterProgramPhase',false,{},succeededCallback,failedCallback,userContext); },
GetFilterProductCategories:function(succeededCallback, failedCallback, userContext) {
return this._invoke(this._get_path(), 'GetFilterProductCategories',false,{},succeededCallback,failedCallback,userContext); },
GetFilterProductVersions:function(succeededCallback, failedCallback, userContext) {
return this._invoke(this._get_path(), 'GetFilterProductVersions',false,{},succeededCallback,failedCallback,userContext); },
GetFilterProductOperatingSystems:function(succeededCallback, failedCallback, userContext) {
return this._invoke(this._get_path(), 'GetFilterProductOperatingSystems',false,{},succeededCallback,failedCallback,userContext); },
GetFilterProductLanguages:function(succeededCallback, failedCallback, userContext) {
return this._invoke(this._get_path(), 'GetFilterProductLanguages',false,{},succeededCallback,failedCallback,userContext); },
GetFilterProductTypes:function(page,succeededCallback, failedCallback, userContext) {
return this._invoke(this._get_path(), 'GetFilterProductTypes',false,{page:page},succeededCallback,failedCallback,userContext); }}
productExplorerServices.registerClass('productExplorerServices',Sys.Net.WebServiceProxy);
productExplorerServices._staticInstance = new productExplorerServices();
productExplorerServices.set_path = function(value) { productExplorerServices._staticInstance.set_path(value); }
productExplorerServices.get_path = function() { return productExplorerServices._staticInstance.get_path(); }
productExplorerServices.set_timeout = function(value) { productExplorerServices._staticInstance.set_timeout(value); }
productExplorerServices.get_timeout = function() { return productExplorerServices._staticInstance.get_timeout(); }
productExplorerServices.set_defaultUserContext = function(value) { productExplorerServices._staticInstance.set_defaultUserContext(value); }
productExplorerServices.get_defaultUserContext = function() { return productExplorerServices._staticInstance.get_defaultUserContext(); }
productExplorerServices.set_defaultSucceededCallback = function(value) { productExplorerServices._staticInstance.set_defaultSucceededCallback(value); }
productExplorerServices.get_defaultSucceededCallback = function() { return productExplorerServices._staticInstance.get_defaultSucceededCallback(); }
productExplorerServices.set_defaultFailedCallback = function(value) { productExplorerServices._staticInstance.set_defaultFailedCallback(value); }
productExplorerServices.get_defaultFailedCallback = function() { return productExplorerServices._staticInstance.get_defaultFailedCallback(); }
productExplorerServices.set_enableJsonp = function(value) { productExplorerServices._staticInstance.set_enableJsonp(value); }
productExplorerServices.get_enableJsonp = function() { return productExplorerServices._staticInstance.get_enableJsonp(); }
productExplorerServices.set_jsonpCallbackParameter = function(value) { productExplorerServices._staticInstance.set_jsonpCallbackParameter(value); }
productExplorerServices.get_jsonpCallbackParameter = function() { return productExplorerServices._staticInstance.get_jsonpCallbackParameter(); }
productExplorerServices.set_path("/ajaxServices/productExplorerServices.asmx");
productExplorerServices.GetProductExplorerRelatedItem= function(id,onSuccess,onFailed,userContext) {productExplorerServices._staticInstance.GetProductExplorerRelatedItem(id,onSuccess,onFailed,userContext); }
productExplorerServices.GetProductExplorerProduct= function(id,onSuccess,onFailed,userContext) {productExplorerServices._staticInstance.GetProductExplorerProduct(id,onSuccess,onFailed,userContext); }
productExplorerServices.GetProductExplorerProducts= function(onSuccess,onFailed,userContext) {productExplorerServices._staticInstance.GetProductExplorerProducts(onSuccess,onFailed,userContext); }
productExplorerServices.GetProductExplorerRelatedItems= function(productid,mr,catid,capid,typeid,modelingid,relatedItemId,onSuccess,onFailed,userContext) {productExplorerServices._staticInstance.GetProductExplorerRelatedItems(productid,mr,catid,capid,typeid,modelingid,relatedItemId,onSuccess,onFailed,userContext); }
productExplorerServices.GetFilterCategories= function(stk,onSuccess,onFailed,userContext) {productExplorerServices._staticInstance.GetFilterCategories(stk,onSuccess,onFailed,userContext); }
productExplorerServices.GetFilterCapabilities= function(stk,onSuccess,onFailed,userContext) {productExplorerServices._staticInstance.GetFilterCapabilities(stk,onSuccess,onFailed,userContext); }
productExplorerServices.GetFilterTypes= function(stk,onSuccess,onFailed,userContext) {productExplorerServices._staticInstance.GetFilterTypes(stk,onSuccess,onFailed,userContext); }
productExplorerServices.GetFilterModeling= function(stk,onSuccess,onFailed,userContext) {productExplorerServices._staticInstance.GetFilterModeling(stk,onSuccess,onFailed,userContext); }
productExplorerServices.GetFilterProgramPhase= function(onSuccess,onFailed,userContext) {productExplorerServices._staticInstance.GetFilterProgramPhase(onSuccess,onFailed,userContext); }
productExplorerServices.GetFilterProductCategories= function(onSuccess,onFailed,userContext) {productExplorerServices._staticInstance.GetFilterProductCategories(onSuccess,onFailed,userContext); }
productExplorerServices.GetFilterProductVersions= function(onSuccess,onFailed,userContext) {productExplorerServices._staticInstance.GetFilterProductVersions(onSuccess,onFailed,userContext); }
productExplorerServices.GetFilterProductOperatingSystems= function(onSuccess,onFailed,userContext) {productExplorerServices._staticInstance.GetFilterProductOperatingSystems(onSuccess,onFailed,userContext); }
productExplorerServices.GetFilterProductLanguages= function(onSuccess,onFailed,userContext) {productExplorerServices._staticInstance.GetFilterProductLanguages(onSuccess,onFailed,userContext); }
productExplorerServices.GetFilterProductTypes= function(page,onSuccess,onFailed,userContext) {productExplorerServices._staticInstance.GetFilterProductTypes(page,onSuccess,onFailed,userContext); }
var gtc = Sys.Net.WebServiceProxy._generateTypedConstructor;
if (typeof(relatedItems) === 'undefined') {
var relatedItems=gtc("relatedItems");
relatedItems.registerClass('relatedItems');
}
if (typeof(productItems) === 'undefined') {
var productItems=gtc("productItems");
productItems.registerClass('productItems');
}
if (typeof(categoryItems) === 'undefined') {
var categoryItems=gtc("categoryItems");
categoryItems.registerClass('categoryItems');
}
if (typeof(capabilityItems) === 'undefined') {
var capabilityItems=gtc("capabilityItems");
capabilityItems.registerClass('capabilityItems');
}
if (typeof(typeItems) === 'undefined') {
var typeItems=gtc("typeItems");
typeItems.registerClass('typeItems');
}
if (typeof(modelingItems) === 'undefined') {
var modelingItems=gtc("modelingItems");
modelingItems.registerClass('modelingItems');
}
if (typeof(programPhase) === 'undefined') {
var programPhase=gtc("programPhase");
programPhase.registerClass('programPhase');
}
if (typeof(productCategory) === 'undefined') {
var productCategory=gtc("productCategory");
productCategory.registerClass('productCategory');
}
if (typeof(productVersion) === 'undefined') {
var productVersion=gtc("productVersion");
productVersion.registerClass('productVersion');
}
if (typeof(productOperatingSystem) === 'undefined') {
var productOperatingSystem=gtc("productOperatingSystem");
productOperatingSystem.registerClass('productOperatingSystem');
}
if (typeof(productLanguage) === 'undefined') {
var productLanguage=gtc("productLanguage");
productLanguage.registerClass('productLanguage');
}
if (typeof(productType) === 'undefined') {
var productType=gtc("productType");
productType.registerClass('productType');
}
